Capítulos 22 y 23
…
## [1] 2.665212

Paso 4. Repetimos 1 a 3 para cada uno de los 250 modelos que generamos en models

sim1_dist <- function(a1, a2) {
  measure_distance(c(a1, a2), sim1)
}

# usamos purrr con la helper function sim1_dist que toma 2 parametros double
models <- models %>% 
  mutate(dist = purrr::map2_dbl(a1, a2, sim1_dist))
models

## # A tibble: 250 x 3
##         a1       a2  dist
##      <dbl>    <dbl> <dbl>
##  1 -13.9   -1.66    40.1 
##  2  30.8   -1.38    12.7 
##  3 -16.6    1.68    23.0 
##  4 -19.3    3.30    17.2 
##  5  38.9    0.247   25.4 
##  6   9.07   3.72    15.0 
##  7  18.8    0.00915  7.07
##  8  14.4    4.31    23.6 
##  9  -0.400 -3.86    40.9 
## 10 -13.8   -4.01    54.3 
## # ... with 240 more rows
…
Las predicciones nos dicen qué patrones capturó el modelo.

Los residuales nos dicen qué patrones no capturó.

Son las distancia entre los datos observados y los valores predichos por el modelo.

Si nuestro modelo capturó todos los patrones, los residuales no deberían mostrarnos ningún patrón y estar, en promedio cerca de 0 y no muy lejos de los valores observados.

# add_residuals de modelr agrega residuales
sim1 <- sim1 %>% 
  add_residuals(sim1_mod)
sim1

## # A tibble: 30 x 3
##        x     y    resid
##    <int> <dbl>    <dbl>
##  1     1  4.20 -2.07   
##  2     1  7.51  1.24   
##  3     1  2.13 -4.15   
##  4     2  8.99  0.665  
##  5     2 10.2   1.92   
##  6     2 11.3   2.97   
##  7     3  7.36 -3.02   
##  8     3 10.5   0.130  
##  9     3 10.5   0.136  
## 10     4 12.4   0.00763
## # ... with 20 more rows
…
R usa la siguiente matriz para x (xb, xc, xd - 4 categorias menos 1):

model_matrix(sim2, y ~ x)

## # A tibble: 40 x 4
##    `(Intercept)`    xb    xc    xd
##            <dbl> <dbl> <dbl> <dbl>
##  1             1     0     0     0
##  2             1     0     0     0
##  3             1     0     0     0
##  4             1     0     0     0
##  5             1     0     0     0
##  6             1     0     0     0
##  7             1     0     0     0
##  8             1     0     0     0
##  9             1     0     0     0
## 10             1     0     0     0
## # ... with 30 more rows
…
y ~ x1 + x2 es $y = a_0 + a_1 * x_1 + a_2 * x_2 $

y ~ x1 * x2 es \(y = a_0 + a_1 * x_1 + a_2 * x_2 + a_{12} * x_1 * x_2\)

Generemos predicciones para estos modelos y veamos cómo les va:

grid <- sim3 %>% 
# a data_grid hay que pasarle las dos predictoras para que genere valores para las combinaciones de ambas variables
   data_grid(x1, x2) %>%
# gather_predictions genera predicciones para ambos modelos y los pone en una sola columna. Tiene a su amiga spread_predictions que las pone en una columna para mod1 y otra para mod2
  gather_predictions(mod1, mod2)
grid

## # A tibble: 80 x 4
##    model    x1 x2     pred
##    <chr> <int> <fct> <dbl>
##  1 mod1      1 a      1.67
##  2 mod1      1 b      4.56
##  3 mod1      1 c      6.48
##  4 mod1      1 d      4.03
##  5 mod1      2 a      1.48
##  6 mod1      2 b      4.37
##  7 mod1      2 c      6.28
##  8 mod1      2 d      3.84
##  9 mod1      3 a      1.28
## 10 mod1      3 b      4.17
## # ... with 70 more rows
…
Usamos sim4. Misma cosa que al comienzo de la sección anterior para ajustar los dos modelos posibles.

mod1 <- lm(y ~ x1 + x2, data = sim4)
mod2 <- lm(y ~ x1 * x2, data = sim4)

grid <- sim4 %>% 
  data_grid(
    x1 = seq_range(x1, 5), 
    x2 = seq_range(x2, 5) 
  ) %>% 
  gather_predictions(mod1, mod2)
grid

## # A tibble: 50 x 4
##    model    x1    x2   pred
##    <chr> <dbl> <dbl>  <dbl>
##  1 mod1   -1    -1    0.996
##  2 mod1   -1    -0.5 -0.395
##  3 mod1   -1     0   -1.79 
##  4 mod1   -1     0.5 -3.18 
##  5 mod1   -1     1   -4.57 
##  6 mod1   -0.5  -1    1.91 
##  7 mod1   -0.5  -0.5  0.516
##  8 mod1   -0.5   0   -0.875
##  9 mod1   -0.5   0.5 -2.27 
## 10 mod1   -0.5   1   -3.66 
## # ... with 40 more rows
…
